Library\Bee\artifacts\mvdfrm\Unity.TextMeshPro.ref.dll_84A4293DBDD182DB.mvfrm
Library\Bee\artifacts\mvdfrm\UnityEditor.TestRunner.ref.dll_193EC4CE382CBFB3.mvfrm
Library\Bee\artifacts\mvdfrm\UnityEditor.UI.ref.dll_4C98D3F7040CD4F5.mvfrm
Library\Bee\artifacts\mvdfrm\UnityEngine.TestRunner.ref.dll_E55D0F7C63F01D9E.mvfrm
Library\Bee\artifacts\mvdfrm\UnityEngine.UI.ref.dll_08FEAA520A2EFD60.mvfrm
Library\Bee\artifacts\mvdfrm\UnityEditor.Graphs.dll_348AD6FB1662759B.mvfrm
Library\Bee\artifacts\mvdfrm\UnityEditor.CoreModule.dll_6558BC0E246B9469.mvfrm
Library\Bee\artifacts\mvdfrm\UnityEditor.DeviceSimulatorModule.dll_8E7CC0BF842464A8.mvfrm
Library\Bee\artifacts\mvdfrm\UnityEditor.DiagnosticsModule.dll_6D3DF71BCC8F2CF6.mvfrm
Library\Bee\artifacts\mvdfrm\UnityEditor.dll_F69CC71A455488DC.mvfrm
Library\Bee\artifacts\mvdfrm\UnityEditor.GraphViewModule.dll_12533D1874394E0D.mvfrm
Library\Bee\artifacts\mvdfrm\UnityEditor.PackageManagerUIModule.dll_4C2A365671B66885.mvfrm
Library\Bee\artifacts\mvdfrm\UnityEditor.PresetsUIModule.dll_CDB975FA7691A612.mvfrm
Library\Bee\artifacts\mvdfrm\UnityEditor.QuickSearchModule.dll_F84D78292566294F.mvfrm
Library\Bee\artifacts\mvdfrm\UnityEditor.SceneTemplateModule.dll_5FAB3E9443E337B0.mvfrm
Library\Bee\artifacts\mvdfrm\UnityEditor.TextCoreFontEngineModule.dll_F4016A54679D7BC7.mvfrm
Library\Bee\artifacts\mvdfrm\UnityEditor.TextCoreTextEngineModule.dll_3BE9A0C5F72134E5.mvfrm
Library\Bee\artifacts\mvdfrm\UnityEditor.UIBuilderModule.dll_66DBEA34E6F1C741.mvfrm
Library\Bee\artifacts\mvdfrm\UnityEditor.UIElementsModule.dll_ED42C453DC0D9505.mvfrm
Library\Bee\artifacts\mvdfrm\UnityEditor.UIElementsSamplesModule.dll_3FDAAB47EA3D23B8.mvfrm
Library\Bee\artifacts\mvdfrm\UnityEditor.UIServiceModule.dll_9FCDFB97D029175B.mvfrm
Library\Bee\artifacts\mvdfrm\UnityEditor.UnityConnectModule.dll_055D3D81E239779F.mvfrm
Library\Bee\artifacts\mvdfrm\UnityEngine.AccessibilityModule.dll_9250AA2B44595F4D.mvfrm
Library\Bee\artifacts\mvdfrm\UnityEngine.AIModule.dll_2BCAF8AC0FEB6F9D.mvfrm
Library\Bee\artifacts\mvdfrm\UnityEngine.AndroidJNIModule.dll_6B8BAD27252D03DB.mvfrm
Library\Bee\artifacts\mvdfrm\UnityEngine.AnimationModule.dll_E0D8B9414E9622B3.mvfrm
Library\Bee\artifacts\mvdfrm\UnityEngine.ARModule.dll_E53DBDAF6D08CE66.mvfrm
Library\Bee\artifacts\mvdfrm\UnityEngine.AssetBundleModule.dll_3C36AB1A87CCDE41.mvfrm
Library\Bee\artifacts\mvdfrm\UnityEngine.AudioModule.dll_A01D151C2D071EE5.mvfrm
Library\Bee\artifacts\mvdfrm\UnityEngine.ClothModule.dll_070572170723FDC9.mvfrm
Library\Bee\artifacts\mvdfrm\UnityEngine.ClusterInputModule.dll_84F9B29793C14A65.mvfrm
Library\Bee\artifacts\mvdfrm\UnityEngine.ClusterRendererModule.dll_94298330F3DF722C.mvfrm
Library\Bee\artifacts\mvdfrm\UnityEngine.CoreModule.dll_88798F60CC70FF94.mvfrm
Library\Bee\artifacts\mvdfrm\UnityEngine.CrashReportingModule.dll_EA5336A3731517AC.mvfrm
Library\Bee\artifacts\mvdfrm\UnityEngine.DirectorModule.dll_815389DC0A9492B1.mvfrm
Library\Bee\artifacts\mvdfrm\UnityEngine.dll_29410DF2A3C815C1.mvfrm
Library\Bee\artifacts\mvdfrm\UnityEngine.DSPGraphModule.dll_86A4EB457CF563D2.mvfrm
Library\Bee\artifacts\mvdfrm\UnityEngine.GameCenterModule.dll_95D8F741EB6DF4CC.mvfrm
Library\Bee\artifacts\mvdfrm\UnityEngine.GIModule.dll_C40741B9AB9A57B7.mvfrm
Library\Bee\artifacts\mvdfrm\UnityEngine.GridModule.dll_65EAAB4EE4C5958B.mvfrm
Library\Bee\artifacts\mvdfrm\UnityEngine.HotReloadModule.dll_6221774729C93E35.mvfrm
Library\Bee\artifacts\mvdfrm\UnityEngine.ImageConversionModule.dll_001B80E176042A20.mvfrm
Library\Bee\artifacts\mvdfrm\UnityEngine.IMGUIModule.dll_D87CB482F338B2C6.mvfrm
Library\Bee\artifacts\mvdfrm\UnityEngine.InputLegacyModule.dll_CD7BC6391FBE9432.mvfrm
Library\Bee\artifacts\mvdfrm\UnityEngine.InputModule.dll_0692DCCCA33F4389.mvfrm
Library\Bee\artifacts\mvdfrm\UnityEngine.JSONSerializeModule.dll_F26833674394BFD7.mvfrm
Library\Bee\artifacts\mvdfrm\UnityEngine.LocalizationModule.dll_C3467CEA2B3D3D5E.mvfrm
Library\Bee\artifacts\mvdfrm\UnityEngine.NVIDIAModule.dll_1DF7AFDA4560AE80.mvfrm
Library\Bee\artifacts\mvdfrm\UnityEngine.ParticleSystemModule.dll_3D657FEFE126A33A.mvfrm
Library\Bee\artifacts\mvdfrm\UnityEngine.PerformanceReportingModule.dll_4B246FB8F0452853.mvfrm
Library\Bee\artifacts\mvdfrm\UnityEngine.Physics2DModule.dll_2D7EA931EF931A48.mvfrm
Library\Bee\artifacts\mvdfrm\UnityEngine.PhysicsModule.dll_714DFB74E528C856.mvfrm
Library\Bee\artifacts\mvdfrm\UnityEngine.ProfilerModule.dll_B399C312A3EE19BE.mvfrm
Library\Bee\artifacts\mvdfrm\UnityEngine.RuntimeInitializeOnLoadManagerInitializerModule.dll_CFF50397E4691B11.mvfrm
Library\Bee\artifacts\mvdfrm\UnityEngine.ScreenCaptureModule.dll_0C4FE0EC5800EC39.mvfrm
Library\Bee\artifacts\mvdfrm\UnityEngine.SharedInternalsModule.dll_842CBFB6ED322570.mvfrm
Library\Bee\artifacts\mvdfrm\UnityEngine.SpriteMaskModule.dll_7F0569D20CDD8A46.mvfrm
Library\Bee\artifacts\mvdfrm\UnityEngine.SpriteShapeModule.dll_5597D8753D6F164B.mvfrm
Library\Bee\artifacts\mvdfrm\UnityEngine.StreamingModule.dll_956DA6919E1DD9F1.mvfrm
Library\Bee\artifacts\mvdfrm\UnityEngine.SubstanceModule.dll_7218BADAE970D7FF.mvfrm
Library\Bee\artifacts\mvdfrm\UnityEngine.SubsystemsModule.dll_E9B2D033DB257259.mvfrm
Library\Bee\artifacts\mvdfrm\UnityEngine.TerrainModule.dll_8B9476E3BAE71144.mvfrm
Library\Bee\artifacts\mvdfrm\UnityEngine.TerrainPhysicsModule.dll_3DE028C2FA699DC7.mvfrm
Library\Bee\artifacts\mvdfrm\UnityEngine.TextCoreFontEngineModule.dll_7260E5A77A9B3A92.mvfrm
Library\Bee\artifacts\mvdfrm\UnityEngine.TextCoreTextEngineModule.dll_BA491C190A1EF3B0.mvfrm
Library\Bee\artifacts\mvdfrm\UnityEngine.TextRenderingModule.dll_358F52F70F386C2E.mvfrm
Library\Bee\artifacts\mvdfrm\UnityEngine.TilemapModule.dll_2A90DE64D2A3F24D.mvfrm
Library\Bee\artifacts\mvdfrm\UnityEngine.TLSModule.dll_225FBF49529013AA.mvfrm
Library\Bee\artifacts\mvdfrm\UnityEngine.UIElementsModule.dll_EDF1319BDE51AE50.mvfrm
Library\Bee\artifacts\mvdfrm\UnityEngine.UIElementsNativeModule.dll_96A3EAEBE32ED8A7.mvfrm
Library\Bee\artifacts\mvdfrm\UnityEngine.UIModule.dll_273E96D96C327549.mvfrm
Library\Bee\artifacts\mvdfrm\UnityEngine.UmbraModule.dll_1AF1C134BA2DCA58.mvfrm
Library\Bee\artifacts\mvdfrm\UnityEngine.UNETModule.dll_1B1FD74A197FF50D.mvfrm
Library\Bee\artifacts\mvdfrm\UnityEngine.UnityAnalyticsCommonModule.dll_E6632CFD0A2DC6B1.mvfrm
Library\Bee\artifacts\mvdfrm\UnityEngine.UnityAnalyticsModule.dll_5D04F0B98D4DF536.mvfrm
Library\Bee\artifacts\mvdfrm\UnityEngine.UnityConnectModule.dll_F2BCC190DCC1784A.mvfrm
Library\Bee\artifacts\mvdfrm\UnityEngine.UnityCurlModule.dll_13F55A72BEAA14A0.mvfrm
Library\Bee\artifacts\mvdfrm\UnityEngine.UnityTestProtocolModule.dll_FB9D613A4438790E.mvfrm
Library\Bee\artifacts\mvdfrm\UnityEngine.UnityWebRequestAssetBundleModule.dll_1D0CD27042581087.mvfrm
Library\Bee\artifacts\mvdfrm\UnityEngine.UnityWebRequestAudioModule.dll_C320C39776AFF2EB.mvfrm
Library\Bee\artifacts\mvdfrm\UnityEngine.UnityWebRequestModule.dll_11BA888B80F8C49F.mvfrm
Library\Bee\artifacts\mvdfrm\UnityEngine.UnityWebRequestTextureModule.dll_B5999B08F067E420.mvfrm
Library\Bee\artifacts\mvdfrm\UnityEngine.UnityWebRequestWWWModule.dll_850B6174F9DEB01C.mvfrm
Library\Bee\artifacts\mvdfrm\UnityEngine.VehiclesModule.dll_F916835B84BE624C.mvfrm
Library\Bee\artifacts\mvdfrm\UnityEngine.VFXModule.dll_A33E57B828FD7D17.mvfrm
Library\Bee\artifacts\mvdfrm\UnityEngine.VideoModule.dll_C5269986EF993A8A.mvfrm
Library\Bee\artifacts\mvdfrm\UnityEngine.VirtualTexturingModule.dll_BB309F5ABBDD5932.mvfrm
Library\Bee\artifacts\mvdfrm\UnityEngine.VRModule.dll_7A10BD5F0DECFAC1.mvfrm
Library\Bee\artifacts\mvdfrm\UnityEngine.WindModule.dll_FEC86A895DA77DFD.mvfrm
Library\Bee\artifacts\mvdfrm\UnityEngine.XRModule.dll_ACCF80639727481F.mvfrm
Library\Bee\artifacts\mvdfrm\Unity.Android.Gradle.dll_9ABA7B59EB2512D1.mvfrm
Library\Bee\artifacts\mvdfrm\Unity.Android.Types.dll_66F1839677A241FB.mvfrm
Library\Bee\artifacts\mvdfrm\UnityEditor.Android.Extensions.dll_E00D8D98EC142BB1.mvfrm
Library\Bee\artifacts\mvdfrm\UnityEditor.WindowsStandalone.Extensions.dll_49F720DB3140C4C7.mvfrm
Library\Bee\artifacts\mvdfrm\Unity.Plastic.Antlr3.Runtime.dll_D0EB6D9D499441E7.mvfrm
Library\Bee\artifacts\mvdfrm\Unity.Plastic.Newtonsoft.Json.dll_DD999F5D09E49D5E.mvfrm
Library\Bee\artifacts\mvdfrm\Unity.VisualScripting.IonicZip.dll_F879333C60430DF3.mvfrm
Library\Bee\artifacts\mvdfrm\Unity.VisualScripting.YamlDotNet.dll_392DBB990E654B79.mvfrm
Library\Bee\artifacts\mvdfrm\Unity.VisualScripting.TextureAssets.dll_D04BE4ECCF32A971.mvfrm
Library\Bee\artifacts\mvdfrm\Unity.VisualScripting.Antlr3.Runtime.dll_EA9AE27A3F2E5B98.mvfrm